Isolating Data with dplyr
…
Exercise - select()

Use the example below to get a feel for select(). Can
you extract just the name column? How about the
name and year columns? How about all of the
columns except prop?

select(babynames, name, sex)

# A tibble: 1,924,665 × 2
   name      sex  
   <chr>     <chr>
 1 Mary      F    
 2 Anna      F    
 3 Emma      F    
 4 Elizabeth F    
 5 Minnie    F    
 6 Margaret  F    
 7 Ida       F    
 8 Alice     F    
 9 Bertha    F    
10 Sarah     F    
# ℹ 1,924,655 more rows
…
arrange(babynames, n)

Tie breakers

If you supply additional column names, arrange() will
use them as tie breakers to order rows that have identical values in the
earlier columns. Add to the code below, to make prop a tie
breaker. The result should first order rows by value of n
and then reorder rows within each value of n by values of
prop.

arrange(babynames, n)

# A tibble: 1,924,665 × 5
    year sex   name          n      prop
   <dbl> <chr> <chr>     <int>     <dbl>
 1  1880 F     Adelle        5 0.0000512
 2  1880 F     Adina         5 0.0000512
 3  1880 F     Adrienne      5 0.0000512
 4  1880 F     Albertine     5 0.0000512
 5  1880 F     Alys          5 0.0000512
 6  1880 F     Ana           5 0.0000512
 7  1880 F     Araminta      5 0.0000512
 8  1880 F     Arthur        5 0.0000512
 9  1880 F     Birtha        5 0.0000512
10  1880 F     Bulah         5 0.0000512
# ℹ 1,924,655 more rows
…
desc

If you would rather arrange rows in the opposite order, i.e. from
large values to small values, surround a column name
with desc(). arrange() will reorder the rows
based on the largest values to the smallest.

Add a desc() to the code below to display the most
popular name for 2017 (the largest year in the dataset) instead of 1880
(the smallest year in the dataset).

arrange(babynames, year, desc(prop))

# A tibble: 1,924,665 × 5
    year sex   name        n   prop
   <dbl> <chr> <chr>   <int>  <dbl>
 1  1880 M     John     9655 0.0815
 2  1880 M     William  9532 0.0805
 3  1880 F     Mary     7065 0.0724
 4  1880 M     James    5927 0.0501
 5  1880 M     Charles  5348 0.0452
 6  1880 M     George   5126 0.0433
 7  1880 M     Frank    3242 0.0274
 8  1880 F     Anna     2604 0.0267
 9  1880 M     Joseph   2632 0.0222
10  1880 M     Thomas   2534 0.0214
# ℹ 1,924,655 more rows
…
Filter babynames to just boys born in 2017

Select the name and n columns from the
result

Arrange those columns so that the most popular names appear near the
top.

boys_2017 <- filter(babynames, year == 2017, sex == "M")
boys_2017 <- select(boys_2017, name, n)
boys_2017 <- arrange(boys_2017, desc(n))
boys_2017

## # A tibble: 14,160 × 2
##    name         n
##    <chr>    <int>
##  1 Liam     18728
##  2 Noah     18326
##  3 William  14904
##  4 James    14232
##  5 Logan    13974
##  6 Benjamin 13733
##  7 Mason    13502
##  8 Elijah   13268
##  9 Oliver   13141
## 10 Jacob    13106
## # ℹ 14,150 more rows
…
The pipe operator %>% performs an extremely simple
task: it passes the result on its left into the first argument of the
function on its right. Or put another way, x %>% f(y) is
the same as f(x, y). This piece of code punctuation makes
it easy to write and read series of functions that are applied in a step
by step way. For example, we can use the pipe to rewrite our code
above:

babynames %>% 
  filter(year == 2017, sex == "M") %>% 
  select(name, n) %>% 
  arrange(desc(n))

## # A tibble: 14,160 × 2
##    name         n
##    <chr>    <int>
##  1 Liam     18728
##  2 Noah     18326
##  3 William  14904
##  4 James    14232
##  5 Logan    13974
##  6 Benjamin 13733
##  7 Mason    13502
##  8 Elijah   13268
##  9 Oliver   13141
## 10 Jacob    13106
## # ℹ 14,150 more rows
…
