List Columns
…
iris %>% 
  mutate(length2 = round(Sepal.Length))

"You learned about dplyr functions in the Work with Data primer."

Models

Can you use what you did in the last three exercises to add a list
column to your data set that looks like this? models
contains the output of your map expression.

## # A tibble: 142 × 3
## # Groups:   country [142]
##    country     data              models
##    <fct>       <list>            <list>
##  1 Afghanistan <tibble [12 × 5]> <lm>  
##  2 Albania     <tibble [12 × 5]> <lm>  
##  3 Algeria     <tibble [12 × 5]> <lm>  
##  4 Angola      <tibble [12 × 5]> <lm>  
##  5 Argentina   <tibble [12 × 5]> <lm>  
##  6 Australia   <tibble [12 × 5]> <lm>  
##  7 Austria     <tibble [12 × 5]> <lm>  
##  8 Bahrain     <tibble [12 × 5]> <lm>  
##  9 Bangladesh  <tibble [12 × 5]> <lm>  
## 10 Belgium     <tibble [12 × 5]> <lm>  
## # ℹ 132 more rows

Add a new column to your data frame named models.
models should be a list column that contains the result of
fitting ~lm(lifeExp ~ year, data = .x) to each tibble in
data.

Click Hints if you would like step by step guidance. Then click
Submit Answer.

nested_gapminder

# A tibble: 142 × 2
# Groups:   country [142]
   country     data             
   <fct>       <list>           
 1 Afghanistan <tibble [12 × 5]>
 2 Albania     <tibble [12 × 5]>
 3 Algeria     <tibble [12 × 5]>
 4 Angola      <tibble [12 × 5]>
 5 Argentina   <tibble [12 × 5]>
 6 Australia   <tibble [12 × 5]>
 7 Austria     <tibble [12 × 5]>
 8 Bahrain     <tibble [12 × 5]>
 9 Bangladesh  <tibble [12 × 5]>
10 Belgium     <tibble [12 × 5]>
# ℹ 132 more rows
…
"nested_gapminder is a table. You want to add a new column to it. So your first call should be to mutate()."

"You want to use mutate() to create a new column named models."

"models should contain the map() output that you created in the previous exercise..."

"...i.e., models should contain the output of data %>% map(~lm(lifeExp ~ year, data = .x)). Is this output a list? Yes. Can mutate() handle a list? Sure, mutate() will save it as a list column."

Coefficients

Next, let’s extract the year coefficients of each model
and save them as a column in our data frame named
coefficient, like this:

## # A tibble: 142 × 4
## # Groups:   country [142]
##    country     data              models coefficient
##    <fct>       <list>            <list>       <dbl>
##  1 Afghanistan <tibble [12 × 5]> <lm>         0.275
##  2 Albania     <tibble [12 × 5]> <lm>         0.335
##  3 Algeria     <tibble [12 × 5]> <lm>         0.569
##  4 Angola      <tibble [12 × 5]> <lm>         0.209
##  5 Argentina   <tibble [12 × 5]> <lm>         0.232
##  6 Australia   <tibble [12 × 5]> <lm>         0.228
##  7 Austria     <tibble [12 × 5]> <lm>         0.242
##  8 Bahrain     <tibble [12 × 5]> <lm>         0.468
##  9 Bangladesh  <tibble [12 × 5]> <lm>         0.498
## 10 Belgium     <tibble [12 × 5]> <lm>         0.209
## # ℹ 132 more rows
…
Use the map expression ~coef(.x) %>% pluck("year")
to populate coefficient with the year coefficients of each
model.

Then click Submit Answer.

There is a lot going on here, so don’t be afraid to click Show Hint
if you get stuck.

gap_models

# A tibble: 142 × 3
# Groups:   country [142]
   country     data              models
   <fct>       <list>            <list>
 1 Afghanistan <tibble [12 × 5]> <lm>  
 2 Albania     <tibble [12 × 5]> <lm>  
 3 Algeria     <tibble [12 × 5]> <lm>  
 4 Angola      <tibble [12 × 5]> <lm>  
 5 Argentina   <tibble [12 × 5]> <lm>  
 6 Australia   <tibble [12 × 5]> <lm>  
 7 Austria     <tibble [12 × 5]> <lm>  
 8 Bahrain     <tibble [12 × 5]> <lm>  
 9 Bangladesh  <tibble [12 × 5]> <lm>  
10 Belgium     <tibble [12 × 5]> <lm>  
# ℹ 132 more rows

gap_models %>% 
  mutate(coefficient = map_dbl(models, ~coef(.x) %>% pluck("year")))

"You learned about map functions that return different types of output in the Map tutorial."

"You learned about map functions that return different types of output in the Map tutorial."

R-squared

Repeat the previous workflow one more time, but this time create a
column that contains the R-squared from each model, like this:

## # A tibble: 142 × 5
## # Groups:   country [142]
##    country     data              models coefficient r_squared
##    <fct>       <list>            <list>       <dbl>     <dbl>
##  1 Afghanistan <tibble [12 × 5]> <lm>         0.275     0.948
##  2 Albania     <tibble [12 × 5]> <lm>         0.335     0.911
##  3 Algeria     <tibble [12 × 5]> <lm>         0.569     0.985
##  4 Angola      <tibble [12 × 5]> <lm>         0.209     0.888
##  5 Argentina   <tibble [12 × 5]> <lm>         0.232     0.996
##  6 Australia   <tibble [12 × 5]> <lm>         0.228     0.980
##  7 Austria     <tibble [12 × 5]> <lm>         0.242     0.992
##  8 Bahrain     <tibble [12 × 5]> <lm>         0.468     0.967
##  9 Bangladesh  <tibble [12 × 5]> <lm>         0.498     0.989
## 10 Belgium     <tibble [12 × 5]> <lm>         0.209     0.995
## # ℹ 132 more rows

You can use the map expression
~summary(.x) %>% pluck("r.squared") to acquire the
R-squares. Do you remember the rest of the workflow?

I’ve saved your previous result as gap_coefs.

Add an r_squared column to gap_coefs.

gap_coefs

# A tibble: 142 × 4
# Groups:   country [142]
   country     data              models coefficient
   <fct>       <list>            <list>       <dbl>
 1 Afghanistan <tibble [12 × 5]> <lm>         0.275
 2 Albania     <tibble [12 × 5]> <lm>         0.335
 3 Algeria     <tibble [12 × 5]> <lm>         0.569
 4 Angola      <tibble [12 × 5]> <lm>         0.209
 5 Argentina   <tibble [12 × 5]> <lm>         0.232
 6 Australia   <tibble [12 × 5]> <lm>         0.228
 7 Austria     <tibble [12 × 5]> <lm>         0.242
 8 Bahrain     <tibble [12 × 5]> <lm>         0.468
 9 Bangladesh  <tibble [12 × 5]> <lm>         0.498
10 Belgium     <tibble [12 × 5]> <lm>         0.209
# ℹ 132 more rows
…
Power

Second, power. You are a data scientist. You know how to wrangle
tables. By placing the pieces of your analysis into a table you can
wrangle them too.

For example…

What if you want to find the models with the most rapid increase in
life expectancy?

gap_final %>% 
  arrange(desc(coefficient))

## # A tibble: 142 × 5
## # Groups:   country [142]
##    country            data              models coefficient r_squared
##    <fct>              <list>            <list>       <dbl>     <dbl>
##  1 Oman               <tibble [12 × 5]> <lm>         0.772     0.975
##  2 Vietnam            <tibble [12 × 5]> <lm>         0.672     0.989
##  3 Saudi Arabia       <tibble [12 × 5]> <lm>         0.650     0.972
##  4 Indonesia          <tibble [12 × 5]> <lm>         0.635     0.997
##  5 Libya              <tibble [12 × 5]> <lm>         0.626     0.983
##  6 Yemen, Rep.        <tibble [12 × 5]> <lm>         0.605     0.981
##  7 West Bank and Gaza <tibble [12 × 5]> <lm>         0.601     0.970
##  8 Tunisia            <tibble [12 × 5]> <lm>         0.588     0.981
##  9 Gambia             <tibble [12 × 5]> <lm>         0.582     0.989
## 10 Jordan             <tibble [12 × 5]> <lm>         0.572     0.970
## # ℹ 132 more rows

How about the ten countries with the most non-linear change in life
expectancy? Here they are, along with all of their data.

gap_final %>% 
  top_n(10, wt = desc(r_squared))

## # A tibble: 142 × 5
## # Groups:   country [142]
##    country     data              models coefficient r_squared
##    <fct>       <list>            <list>       <dbl>     <dbl>
##  1 Afghanistan <tibble [12 × 5]> <lm>         0.275     0.948
##  2 Albania     <tibble [12 × 5]> <lm>         0.335     0.911
##  3 Algeria     <tibble [12 × 5]> <lm>         0.569     0.985
##  4 Angola      <tibble [12 × 5]> <lm>         0.209     0.888
##  5 Argentina   <tibble [12 × 5]> <lm>         0.232     0.996
##  6 Australia   <tibble [12 × 5]> <lm>         0.228     0.980
##  7 Austria     <tibble [12 × 5]> <lm>         0.242     0.992
##  8 Bahrain     <tibble [12 × 5]> <lm>         0.468     0.967
##  9 Bangladesh  <tibble [12 × 5]> <lm>         0.498     0.989
## 10 Belgium     <tibble [12 × 5]> <lm>         0.209     0.995
## # ℹ 132 more rows
…
